<svg width="26" height="24" viewBox="0 0 26 24" fill="none" xmlns="http://www.w3.org/2000/svg">
    <path fill-rule="evenodd" clip-rule="evenodd"
          d="M25.1875 7.0589H24.4258V19.7648H25.1875C25.6082 19.7648 25.9492 20.0808 25.9492 20.4706V23.2941C25.9492 23.684 25.6082 24 25.1875 24H0.8125C0.391769 24 0.0507812 23.684 0.0507812 23.2941V20.4706C0.0507812 20.0808 0.391769 19.7648 0.8125 19.7648H1.57422V7.0589H0.8125C0.391769 7.0589 0.0507812 6.74286 0.0507812 6.35284V3.52936C0.0507812 3.13953 0.391769 2.82349 0.8125 2.82349H4.62109V0.705872C4.62109 0.31604 4.96208 0 5.38281 0H8.42969C8.85042 0 9.19141 0.31604 9.19141 0.705872V2.82349H16.8086V0.705872C16.8086 0.31604 17.1496 0 17.5703 0H20.6172C21.0379 0 21.3789 0.31604 21.3789 0.705872V2.82349H25.1875C25.6082 2.82349 25.9492 3.13953 25.9492 3.52936V6.35284C25.9492 6.74286 25.6082 7.0589 25.1875 7.0589ZM19.8555 1.41174H18.332V2.82349H19.8555V1.41174ZM7.66797 1.41174H6.14453V2.82349H7.66797V1.41174ZM24.4258 4.23523H1.57422V5.64716H24.4258V4.23523ZM1.57422 21.1765V22.5883H24.4258V21.1765H1.57422ZM3.09766 16.9411V19.7648H22.9023V16.9411H20.6172C20.1965 16.9411 19.8555 16.6252 19.8555 16.2352C19.8555 15.8454 20.1965 15.5294 20.6172 15.5294H22.9023V14.1176H20.6172C20.1965 14.1176 19.8555 13.8016 19.8555 13.4117C19.8555 13.0219 20.1965 12.7059 20.6172 12.7059H22.9023V11.2941H20.6172C20.1965 11.2941 19.8555 10.9781 19.8555 10.5883C19.8555 10.1982 20.1965 9.8822 20.6172 9.8822H22.9023V7.05872H3.09766V9.8822H5.38281C5.80354 9.8822 6.14453 10.1982 6.14453 10.5883C6.14453 10.9781 5.80354 11.2941 5.38281 11.2941H3.09766V12.7059H5.38281C5.80354 12.7059 6.14453 13.0219 6.14453 13.4117C6.14453 13.8016 5.80354 14.1176 5.38281 14.1176H3.09766V15.5294H5.38281C5.80354 15.5294 6.14453 15.8454 6.14453 16.2352C6.14453 16.6252 5.80354 16.9411 5.38281 16.9411H3.09766ZM7.66797 13.4117C7.66797 10.6871 10.0598 8.47064 13 8.47064C15.9388 8.47064 18.332 10.6871 18.332 13.4117C18.332 16.1364 15.9402 18.353 13 18.353C10.0648 18.353 7.66797 16.1398 7.66797 13.4117ZM14.0575 10.0219C11.6113 9.36548 9.19141 11.0804 9.19141 13.4117C9.19141 14.4899 9.71628 15.4561 10.5411 16.1039L12.6844 14.1176H11.4766C10.7986 14.1176 10.4597 13.3557 10.938 12.9126L14.0575 10.0219ZM15.062 13.9109L11.9425 16.8018C14.3887 17.4582 16.8086 15.743 16.8086 13.4117C16.8086 12.3336 16.2837 11.3676 15.4589 10.7195L13.3156 12.7059H14.5234C15.2016 12.7059 15.5401 13.468 15.062 13.9109Z"
          fill="#828282"/>
</svg>
