<svg width="176" height="65" viewBox="0 0 176 65" fill="none" xmlns="http://www.w3.org/2000/svg">
    <g clip-path="url(#clip0)">
        <mask id="mask4" mask-type="alpha" maskUnits="userSpaceOnUse" x="154" y="0" width="23" height="48">
            <path d="M176.642 0.89797L176.642 47.2395L166.144 47.5239L154.043 41.5426L156.573 0.346435L160.423 0.897984L176.642 0.89797Z"
                  fill="#C4C4C4"/>
        </mask>
        <g mask="url(#mask4)">
            <path d="M0.511244 -14.8522C9.7877 -62.7411 56.0149 -94.0184 103.76 -84.7154C151.506 -75.4123 182.694 -29.0509 173.417 18.8381C164.141 66.7271 117.914 98.0044 70.1683 88.7013C22.4228 79.3983 -8.76521 33.0368 0.511244 -14.8522Z"
                  stroke="white"/>
        </g>
        <path d="M175.003 1.44757L169.003 1.44757" stroke="white"/>
        <path d="M172.011 24.3358L169.114 23.5572" stroke="white"/>
        <path d="M163.483 45.5862L158.166 42.807" stroke="white"/>
        <path d="M173.686 16.7197L167.777 15.6805" stroke="white"/>
        <path d="M166.797 38.7456L164.079 37.4773" stroke="white"/>
        <path d="M174.693 8.90638L171.703 8.6526" stroke="white"/>
        <path d="M169.786 31.4599L164.144 29.4184" stroke="white"/>
        <path d="M149.212 63.9884L147.093 61.864" stroke="#FF0000"/>
        <path d="M154.459 58.2329L149.865 54.3739" stroke="#FFE600"/>
        <path d="M159.226 51.9712L156.766 50.254" stroke="white"/>
        <mask id="mask5" mask-type="alpha" maskUnits="userSpaceOnUse" x="-1" y="0" width="23" height="48">
            <path d="M-1 0.898047L-0.999998 47.2396L9.5236 47.5239L21.6543 41.5426L19.1179 0.34651L15.258 0.898059L-1 0.898047Z"
                  fill="#C4C4C4"/>
        </mask>
        <g mask="url(#mask5)">
            <path d="M175.557 -14.8525C166.258 -62.7405 119.92 -94.019 72.0577 -84.7156C24.1955 -75.4122 -7.06701 -29.0498 2.23162 18.8382C11.5303 66.7262 57.8686 98.0046 105.731 88.7012C153.593 79.3978 184.856 33.0354 175.557 -14.8525Z"
                  stroke="white"/>
        </g>
        <path d="M0.643353 1.44757L6.64335 1.44757" stroke="white"/>
        <path d="M3.6431 24.3357L6.54077 23.5589" stroke="white"/>
        <path d="M12.1907 45.586L17.5109 42.812" stroke="white"/>
        <path d="M1.96331 16.7197L7.87307 15.6829" stroke="white"/>
        <path d="M8.86876 38.7456L11.5887 37.4798" stroke="white"/>
        <path d="M0.954395 8.90634L3.94369 8.65316" stroke="white"/>
        <path d="M5.87288 31.4599L11.5165 29.4227" stroke="white"/>
        <path d="M26.497 63.9884L28.6178 61.8665" stroke="#FF0000"/>
        <path d="M21.2365 58.2329L25.8354 54.3794" stroke="#FFE600"/>
        <path d="M16.4581 51.9711L18.92 50.2567" stroke="white"/>
    </g>
</svg>
