<svg width="166" height="38" viewBox="0 0 166 38" fill="none" xmlns="http://www.w3.org/2000/svg">
    <g clip-path="url(#clip0)">
        <mask id="mask1" mask-type="alpha" maskUnits="userSpaceOnUse" x="23" y="-4" width="125" height="27">
            <path d="M23.8398 1.599L147.84 -3.90101L143.34 12.9409L138.54 22.099L27.3398 22.099L23.8398 16.099L23.8398 1.599Z"
                  fill="#C4C4C4"/>
        </mask>
        <g mask="url(#mask1)">
            <circle cx="83.5157" cy="117.516" r="116.309" transform="rotate(100.994 83.5157 117.516)" stroke="white"/>
        </g>
        <path d="M82.7985 1.40657L82.7985 7.40657" stroke="white"/>
        <path d="M112.896 5.35308L112.12 8.25086" stroke="white"/>
        <path d="M140.84 16.599L137.946 22.151" stroke="white"/>
        <path d="M165.038 35.4214L162.917 37.5427" stroke="#FF0000"/>
        <path d="M102.881 3.14333L101.845 9.05318" stroke="white"/>
        <path d="M131.845 12.2284L130.579 14.9485" stroke="white"/>
        <path d="M157.47 28.5002L153.618 33.1002" stroke="#FFE600"/>
        <path d="M92.6068 1.81588L92.3537 4.80519" stroke="white"/>
        <path d="M122.264 8.28698L120.228 13.9309" stroke="white"/>
        <path d="M149.236 22.2135L147.522 24.6758" stroke="white"/>
        <path d="M52.9298 5.35309L53.7055 8.25087" stroke="white"/>
        <path d="M24.9075 16.9549L27.9045 22.151" stroke="white"/>
        <path d="M0.83976 35.4214L2.95895 37.5427" stroke="#FF0000"/>
        <path d="M62.9348 3.14334L63.97 9.05319" stroke="white"/>
        <path d="M34.0002 12.2284L35.2642 14.9485" stroke="white"/>
        <path d="M8.40052 28.5002L12.249 33.1002" stroke="#FFE600"/>
        <path d="M73.1987 1.81589L73.4515 4.8052" stroke="white"/>
        <path d="M43.5711 8.28699L45.6053 13.9309" stroke="white"/>
        <path d="M16.6263 22.2135L18.3383 24.6758" stroke="white"/>
    </g>
</svg>
